projectKey=SC2
serverUrl=http://localhost:9000
serverVersion=10.5.1.90531
dashboardUrl=http://localhost:9000/dashboard?id=SC2
ceTaskId=706e03a7-43b7-4f9e-be7e-577812a9fe2a
ceTaskUrl=http://localhost:9000/api/ce/task?id=706e03a7-43b7-4f9e-be7e-577812a9fe2a
